{
	"frames": {
		"ball-0.png": {
			"frame": {
				"x": 1,
				"y": 1,
				"w": 70,
				"h": 80
			},
			"rotated": false,
			"trimmed": false,
			"spriteSourceSize": {
				"x": 0,
				"y": 0,
				"w": 70,
				"h": 80
			},
			"sourceSize": {
				"w": 70,
				"h": 80
			}
		},
		"ball-1.png": {
			"frame": {
				"x": 73,
				"y": 1,
				"w": 70,
				"h": 80
			},
			"rotated": false,
			"trimmed": false,
			"spriteSourceSize": {
				"x": 0,
				"y": 0,
				"w": 70,
				"h": 80
			},
			"sourceSize": {
				"w": 70,
				"h": 80
			}
		},
		"barrier-0.png": {
			"frame": {
				"x": 145,
				"y": 1,
				"w": 70,
				"h": 80
			},
			"rotated": false,
			"trimmed": false,
			"spriteSourceSize": {
				"x": 0,
				"y": 0,
				"w": 70,
				"h": 80
			},
			"sourceSize": {
				"w": 70,
				"h": 80
			}
		},
		"barrier-1.png": {
			"frame": {
				"x": 217,
				"y": 1,
				"w": 70,
				"h": 80
			},
			"rotated": false,
			"trimmed": false,
			"spriteSourceSize": {
				"x": 0,
				"y": 0,
				"w": 70,
				"h": 80
			},
			"sourceSize": {
				"w": 70,
				"h": 80
			}
		},
		"barrier-2.png": {
			"frame": {
				"x": 289,
				"y": 1,
				"w": 70,
				"h": 80
			},
			"rotated": false,
			"trimmed": false,
			"spriteSourceSize": {
				"x": 0,
				"y": 0,
				"w": 70,
				"h": 80
			},
			"sourceSize": {
				"w": 70,
				"h": 80
			}
		},
		"bg-menu.png": {
			"frame": {
				"x": 361,
				"y": 1,
				"w": 105,
				"h": 105
			},
			"rotated": false,
			"trimmed": false,
			"spriteSourceSize": {
				"x": 0,
				"y": 0,
				"w": 105,
				"h": 105
			},
			"sourceSize": {
				"w": 105,
				"h": 105
			}
		},
		"cone-0.png": {
			"frame": {
				"x": 468,
				"y": 1,
				"w": 70,
				"h": 80
			},
			"rotated": false,
			"trimmed": false,
			"spriteSourceSize": {
				"x": 0,
				"y": 0,
				"w": 70,
				"h": 80
			},
			"sourceSize": {
				"w": 70,
				"h": 80
			}
		},
		"cone-1.png": {
			"frame": {
				"x": 540,
				"y": 1,
				"w": 70,
				"h": 80
			},
			"rotated": false,
			"trimmed": false,
			"spriteSourceSize": {
				"x": 0,
				"y": 0,
				"w": 70,
				"h": 80
			},
			"sourceSize": {
				"w": 70,
				"h": 80
			}
		},
		"cone-2.png": {
			"frame": {
				"x": 612,
				"y": 1,
				"w": 70,
				"h": 80
			},
			"rotated": false,
			"trimmed": false,
			"spriteSourceSize": {
				"x": 0,
				"y": 0,
				"w": 70,
				"h": 80
			},
			"sourceSize": {
				"w": 70,
				"h": 80
			}
		},
		"field-0.png": {
			"frame": {
				"x": 684,
				"y": 1,
				"w": 800,
				"h": 600
			},
			"rotated": false,
			"trimmed": false,
			"spriteSourceSize": {
				"x": 0,
				"y": 0,
				"w": 800,
				"h": 600
			},
			"sourceSize": {
				"w": 800,
				"h": 600
			}
		},
		"field-1.png": {
			"frame": {
				"x": 1486,
				"y": 1,
				"w": 800,
				"h": 600
			},
			"rotated": false,
			"trimmed": false,
			"spriteSourceSize": {
				"x": 0,
				"y": 0,
				"w": 800,
				"h": 600
			},
			"sourceSize": {
				"w": 800,
				"h": 600
			}
		},
		"flag-big-0.png": {
			"frame": {
				"x": 2288,
				"y": 1,
				"w": 70,
				"h": 80
			},
			"rotated": false,
			"trimmed": false,
			"spriteSourceSize": {
				"x": 0,
				"y": 0,
				"w": 70,
				"h": 80
			},
			"sourceSize": {
				"w": 70,
				"h": 80
			}
		},
		"flag-big-1.png": {
			"frame": {
				"x": 2360,
				"y": 1,
				"w": 70,
				"h": 80
			},
			"rotated": false,
			"trimmed": false,
			"spriteSourceSize": {
				"x": 0,
				"y": 0,
				"w": 70,
				"h": 80
			},
			"sourceSize": {
				"w": 70,
				"h": 80
			}
		},
		"flag-big-2.png": {
			"frame": {
				"x": 2432,
				"y": 1,
				"w": 70,
				"h": 80
			},
			"rotated": false,
			"trimmed": false,
			"spriteSourceSize": {
				"x": 0,
				"y": 0,
				"w": 70,
				"h": 80
			},
			"sourceSize": {
				"w": 70,
				"h": 80
			}
		},
		"flag-small-0.png": {
			"frame": {
				"x": 2504,
				"y": 1,
				"w": 70,
				"h": 80
			},
			"rotated": false,
			"trimmed": false,
			"spriteSourceSize": {
				"x": 0,
				"y": 0,
				"w": 70,
				"h": 80
			},
			"sourceSize": {
				"w": 70,
				"h": 80
			}
		},
		"flag-small-1.png": {
			"frame": {
				"x": 2576,
				"y": 1,
				"w": 70,
				"h": 80
			},
			"rotated": false,
			"trimmed": false,
			"spriteSourceSize": {
				"x": 0,
				"y": 0,
				"w": 70,
				"h": 80
			},
			"sourceSize": {
				"w": 70,
				"h": 80
			}
		},
		"flag-small-2.png": {
			"frame": {
				"x": 2648,
				"y": 1,
				"w": 70,
				"h": 80
			},
			"rotated": false,
			"trimmed": false,
			"spriteSourceSize": {
				"x": 0,
				"y": 0,
				"w": 70,
				"h": 80
			},
			"sourceSize": {
				"w": 70,
				"h": 80
			}
		},
		"goalkeeper-gray-0.png": {
			"frame": {
				"x": 2720,
				"y": 1,
				"w": 70,
				"h": 80
			},
			"rotated": false,
			"trimmed": false,
			"spriteSourceSize": {
				"x": 0,
				"y": 0,
				"w": 70,
				"h": 80
			},
			"sourceSize": {
				"w": 70,
				"h": 80
			}
		},
		"goalkeeper-gray-1.png": {
			"frame": {
				"x": 2792,
				"y": 1,
				"w": 70,
				"h": 80
			},
			"rotated": false,
			"trimmed": false,
			"spriteSourceSize": {
				"x": 0,
				"y": 0,
				"w": 70,
				"h": 80
			},
			"sourceSize": {
				"w": 70,
				"h": 80
			}
		},
		"goalkeeper-green-0.png": {
			"frame": {
				"x": 2864,
				"y": 1,
				"w": 70,
				"h": 80
			},
			"rotated": false,
			"trimmed": false,
			"spriteSourceSize": {
				"x": 0,
				"y": 0,
				"w": 70,
				"h": 80
			},
			"sourceSize": {
				"w": 70,
				"h": 80
			}
		},
		"goalkeeper-green-1.png": {
			"frame": {
				"x": 2936,
				"y": 1,
				"w": 70,
				"h": 80
			},
			"rotated": false,
			"trimmed": false,
			"spriteSourceSize": {
				"x": 0,
				"y": 0,
				"w": 70,
				"h": 80
			},
			"sourceSize": {
				"w": 70,
				"h": 80
			}
		},
		"icon-back.png": {
			"frame": {
				"x": 3008,
				"y": 1,
				"w": 70,
				"h": 80
			},
			"rotated": false,
			"trimmed": false,
			"spriteSourceSize": {
				"x": 0,
				"y": 0,
				"w": 70,
				"h": 80
			},
			"sourceSize": {
				"w": 70,
				"h": 80
			}
		},
		"icon-close.png": {
			"frame": {
				"x": 3080,
				"y": 1,
				"w": 70,
				"h": 80
			},
			"rotated": false,
			"trimmed": false,
			"spriteSourceSize": {
				"x": 0,
				"y": 0,
				"w": 70,
				"h": 80
			},
			"sourceSize": {
				"w": 70,
				"h": 80
			}
		},
		"icon-config.png": {
			"frame": {
				"x": 3152,
				"y": 1,
				"w": 70,
				"h": 80
			},
			"rotated": false,
			"trimmed": false,
			"spriteSourceSize": {
				"x": 0,
				"y": 0,
				"w": 70,
				"h": 80
			},
			"sourceSize": {
				"w": 70,
				"h": 80
			}
		},
		"icon-download.png": {
			"frame": {
				"x": 3224,
				"y": 1,
				"w": 70,
				"h": 80
			},
			"rotated": false,
			"trimmed": false,
			"spriteSourceSize": {
				"x": 0,
				"y": 0,
				"w": 70,
				"h": 80
			},
			"sourceSize": {
				"w": 70,
				"h": 80
			}
		},
		"icon-menu.png": {
			"frame": {
				"x": 3296,
				"y": 1,
				"w": 70,
				"h": 80
			},
			"rotated": false,
			"trimmed": false,
			"spriteSourceSize": {
				"x": 0,
				"y": 0,
				"w": 70,
				"h": 80
			},
			"sourceSize": {
				"w": 70,
				"h": 80
			}
		},
		"icon-more.png": {
			"frame": {
				"x": 3368,
				"y": 1,
				"w": 70,
				"h": 80
			},
			"rotated": false,
			"trimmed": false,
			"spriteSourceSize": {
				"x": 0,
				"y": 0,
				"w": 70,
				"h": 80
			},
			"sourceSize": {
				"w": 70,
				"h": 80
			}
		},
		"icon-select.png": {
			"frame": {
				"x": 3440,
				"y": 1,
				"w": 70,
				"h": 80
			},
			"rotated": false,
			"trimmed": false,
			"spriteSourceSize": {
				"x": 0,
				"y": 0,
				"w": 70,
				"h": 80
			},
			"sourceSize": {
				"w": 70,
				"h": 80
			}
		},
		"jumpBarrier-0.png": {
			"frame": {
				"x": 3512,
				"y": 1,
				"w": 70,
				"h": 80
			},
			"rotated": false,
			"trimmed": false,
			"spriteSourceSize": {
				"x": 0,
				"y": 0,
				"w": 70,
				"h": 80
			},
			"sourceSize": {
				"w": 70,
				"h": 80
			}
		},
		"jumpBarrier-1.png": {
			"frame": {
				"x": 3584,
				"y": 1,
				"w": 70,
				"h": 80
			},
			"rotated": false,
			"trimmed": false,
			"spriteSourceSize": {
				"x": 0,
				"y": 0,
				"w": 70,
				"h": 80
			},
			"sourceSize": {
				"w": 70,
				"h": 80
			}
		},
		"jumpBarrier-2.png": {
			"frame": {
				"x": 3656,
				"y": 1,
				"w": 70,
				"h": 80
			},
			"rotated": false,
			"trimmed": false,
			"spriteSourceSize": {
				"x": 0,
				"y": 0,
				"w": 70,
				"h": 80
			},
			"sourceSize": {
				"w": 70,
				"h": 80
			}
		},
		"ladder-0.png": {
			"frame": {
				"x": 3728,
				"y": 1,
				"w": 70,
				"h": 80
			},
			"rotated": false,
			"trimmed": false,
			"spriteSourceSize": {
				"x": 0,
				"y": 0,
				"w": 70,
				"h": 80
			},
			"sourceSize": {
				"w": 70,
				"h": 80
			}
		},
		"ladder-1.png": {
			"frame": {
				"x": 3800,
				"y": 1,
				"w": 70,
				"h": 80
			},
			"rotated": false,
			"trimmed": false,
			"spriteSourceSize": {
				"x": 0,
				"y": 0,
				"w": 70,
				"h": 80
			},
			"sourceSize": {
				"w": 70,
				"h": 80
			}
		},
		"ladder-2.png": {
			"frame": {
				"x": 3872,
				"y": 1,
				"w": 70,
				"h": 80
			},
			"rotated": false,
			"trimmed": false,
			"spriteSourceSize": {
				"x": 0,
				"y": 0,
				"w": 70,
				"h": 80
			},
			"sourceSize": {
				"w": 70,
				"h": 80
			}
		},
		"letters-0.png": {
			"frame": {
				"x": 3944,
				"y": 1,
				"w": 70,
				"h": 80
			},
			"rotated": false,
			"trimmed": false,
			"spriteSourceSize": {
				"x": 0,
				"y": 0,
				"w": 70,
				"h": 80
			},
			"sourceSize": {
				"w": 70,
				"h": 80
			}
		},
		"letters-1.png": {
			"frame": {
				"x": 4016,
				"y": 1,
				"w": 70,
				"h": 80
			},
			"rotated": false,
			"trimmed": false,
			"spriteSourceSize": {
				"x": 0,
				"y": 0,
				"w": 70,
				"h": 80
			},
			"sourceSize": {
				"w": 70,
				"h": 80
			}
		},
		"letters-2.png": {
			"frame": {
				"x": 4088,
				"y": 1,
				"w": 70,
				"h": 80
			},
			"rotated": false,
			"trimmed": false,
			"spriteSourceSize": {
				"x": 0,
				"y": 0,
				"w": 70,
				"h": 80
			},
			"sourceSize": {
				"w": 70,
				"h": 80
			}
		},
		"letters-3.png": {
			"frame": {
				"x": 4160,
				"y": 1,
				"w": 70,
				"h": 80
			},
			"rotated": false,
			"trimmed": false,
			"spriteSourceSize": {
				"x": 0,
				"y": 0,
				"w": 70,
				"h": 80
			},
			"sourceSize": {
				"w": 70,
				"h": 80
			}
		},
		"number-0.png": {
			"frame": {
				"x": 4232,
				"y": 1,
				"w": 70,
				"h": 80
			},
			"rotated": false,
			"trimmed": false,
			"spriteSourceSize": {
				"x": 0,
				"y": 0,
				"w": 70,
				"h": 80
			},
			"sourceSize": {
				"w": 70,
				"h": 80
			}
		},
		"number-1.png": {
			"frame": {
				"x": 4304,
				"y": 1,
				"w": 70,
				"h": 80
			},
			"rotated": false,
			"trimmed": false,
			"spriteSourceSize": {
				"x": 0,
				"y": 0,
				"w": 70,
				"h": 80
			},
			"sourceSize": {
				"w": 70,
				"h": 80
			}
		},
		"number-2.png": {
			"frame": {
				"x": 4376,
				"y": 1,
				"w": 70,
				"h": 80
			},
			"rotated": false,
			"trimmed": false,
			"spriteSourceSize": {
				"x": 0,
				"y": 0,
				"w": 70,
				"h": 80
			},
			"sourceSize": {
				"w": 70,
				"h": 80
			}
		},
		"number-3.png": {
			"frame": {
				"x": 4448,
				"y": 1,
				"w": 70,
				"h": 80
			},
			"rotated": false,
			"trimmed": false,
			"spriteSourceSize": {
				"x": 0,
				"y": 0,
				"w": 70,
				"h": 80
			},
			"sourceSize": {
				"w": 70,
				"h": 80
			}
		},
		"player-blue-0.png": {
			"frame": {
				"x": 4520,
				"y": 1,
				"w": 70,
				"h": 80
			},
			"rotated": false,
			"trimmed": false,
			"spriteSourceSize": {
				"x": 0,
				"y": 0,
				"w": 70,
				"h": 80
			},
			"sourceSize": {
				"w": 70,
				"h": 80
			}
		},
		"player-blue-1.png": {
			"frame": {
				"x": 4592,
				"y": 1,
				"w": 70,
				"h": 80
			},
			"rotated": false,
			"trimmed": false,
			"spriteSourceSize": {
				"x": 0,
				"y": 0,
				"w": 70,
				"h": 80
			},
			"sourceSize": {
				"w": 70,
				"h": 80
			}
		},
		"player-blue-2.png": {
			"frame": {
				"x": 4664,
				"y": 1,
				"w": 70,
				"h": 80
			},
			"rotated": false,
			"trimmed": false,
			"spriteSourceSize": {
				"x": 0,
				"y": 0,
				"w": 70,
				"h": 80
			},
			"sourceSize": {
				"w": 70,
				"h": 80
			}
		},
		"player-blue-3.png": {
			"frame": {
				"x": 4736,
				"y": 1,
				"w": 70,
				"h": 80
			},
			"rotated": false,
			"trimmed": false,
			"spriteSourceSize": {
				"x": 0,
				"y": 0,
				"w": 70,
				"h": 80
			},
			"sourceSize": {
				"w": 70,
				"h": 80
			}
		},
		"player-red-0.png": {
			"frame": {
				"x": 4808,
				"y": 1,
				"w": 70,
				"h": 80
			},
			"rotated": false,
			"trimmed": false,
			"spriteSourceSize": {
				"x": 0,
				"y": 0,
				"w": 70,
				"h": 80
			},
			"sourceSize": {
				"w": 70,
				"h": 80
			}
		},
		"player-red-1.png": {
			"frame": {
				"x": 4880,
				"y": 1,
				"w": 70,
				"h": 80
			},
			"rotated": false,
			"trimmed": false,
			"spriteSourceSize": {
				"x": 0,
				"y": 0,
				"w": 70,
				"h": 80
			},
			"sourceSize": {
				"w": 70,
				"h": 80
			}
		},
		"player-red-2.png": {
			"frame": {
				"x": 4952,
				"y": 1,
				"w": 70,
				"h": 80
			},
			"rotated": false,
			"trimmed": false,
			"spriteSourceSize": {
				"x": 0,
				"y": 0,
				"w": 70,
				"h": 80
			},
			"sourceSize": {
				"w": 70,
				"h": 80
			}
		},
		"player-red-3.png": {
			"frame": {
				"x": 5024,
				"y": 1,
				"w": 70,
				"h": 80
			},
			"rotated": false,
			"trimmed": false,
			"spriteSourceSize": {
				"x": 0,
				"y": 0,
				"w": 70,
				"h": 80
			},
			"sourceSize": {
				"w": 70,
				"h": 80
			}
		},
		"player-yellow-0.png": {
			"frame": {
				"x": 5096,
				"y": 1,
				"w": 70,
				"h": 80
			},
			"rotated": false,
			"trimmed": false,
			"spriteSourceSize": {
				"x": 0,
				"y": 0,
				"w": 70,
				"h": 80
			},
			"sourceSize": {
				"w": 70,
				"h": 80
			}
		},
		"player-yellow-1.png": {
			"frame": {
				"x": 5168,
				"y": 1,
				"w": 70,
				"h": 80
			},
			"rotated": false,
			"trimmed": false,
			"spriteSourceSize": {
				"x": 0,
				"y": 0,
				"w": 70,
				"h": 80
			},
			"sourceSize": {
				"w": 70,
				"h": 80
			}
		},
		"player-yellow-2.png": {
			"frame": {
				"x": 5240,
				"y": 1,
				"w": 70,
				"h": 80
			},
			"rotated": false,
			"trimmed": false,
			"spriteSourceSize": {
				"x": 0,
				"y": 0,
				"w": 70,
				"h": 80
			},
			"sourceSize": {
				"w": 70,
				"h": 80
			}
		},
		"player-yellow-3.png": {
			"frame": {
				"x": 5312,
				"y": 1,
				"w": 70,
				"h": 80
			},
			"rotated": false,
			"trimmed": false,
			"spriteSourceSize": {
				"x": 0,
				"y": 0,
				"w": 70,
				"h": 80
			},
			"sourceSize": {
				"w": 70,
				"h": 80
			}
		}
	},
	"meta": {
		"app": "http://www.codeandweb.com/texturepacker",
		"version": "1.0",
		"image": "spritesheet-soccer-indoor.png",
		"format": "RGBA8888",
		"size": {
			"w": 5383,
			"h": 602
		},
		"scale": "1"
	}
}